EESchema Schematic File Version 4
EELAYER 30 0
EELAYER END
$Descr A4 11693 8268
encoding utf-8
Sheet 1 1
Title ""
Date ""
Rev ""
Comp ""
Comment1 ""
Comment2 ""
Comment3 ""
Comment4 ""
$EndDescr
$Comp
L ME218_BaseLib:MCP6546 U1
U 1 1 600670FE
P 3350 3000
F 0 "U1" H 3694 3046 50  0000 L CNN
F 1 "MCP6546" H 3694 2955 50  0000 L CNN
F 2 "" H 3300 3100 50  0001 C CNN
F 3 "" H 3400 3200 50  0001 C CNN
	1    3350 3000
	1    0    0    -1  
$EndComp
$Comp
L power:+5V #PWR?
U 1 1 60067EB7
P 3250 2600
F 0 "#PWR?" H 3250 2450 50  0001 C CNN
F 1 "+5V" H 3265 2773 50  0000 C CNN
F 2 "" H 3250 2600 50  0001 C CNN
F 3 "" H 3250 2600 50  0001 C CNN
	1    3250 2600
	1    0    0    -1  
$EndComp
$Comp
L ME218_BaseLib:Res1 Rpu
U 1 1 60068504
P 3650 2650
F 0 "Rpu" H 3718 2696 50  0000 L CNN
F 1 "Res1" H 3718 2605 50  0000 L CNN
F 2 "" V 3690 2640 50  0001 C CNN
F 3 "" H 3650 2650 50  0001 C CNN
	1    3650 2650
	1    0    0    -1  
$EndComp
$Comp
L power:+3.3V #PWR?
U 1 1 600694E8
P 3650 2400
F 0 "#PWR?" H 3650 2250 50  0001 C CNN
F 1 "+3.3V" H 3665 2573 50  0000 C CNN
F 2 "" H 3650 2400 50  0001 C CNN
F 3 "" H 3650 2400 50  0001 C CNN
	1    3650 2400
	1    0    0    -1  
$EndComp
Wire Wire Line
	3250 2700 3250 2600
Wire Wire Line
	3650 2500 3650 2400
Wire Wire Line
	3650 3000 3650 2800
Wire Wire Line
	3650 3000 4200 3000
Connection ~ 3650 3000
$Comp
L power:GNDREF #PWR?
U 1 1 6006A166
P 3250 3400
F 0 "#PWR?" H 3250 3150 50  0001 C CNN
F 1 "GNDREF" H 3255 3227 50  0000 C CNN
F 2 "" H 3250 3400 50  0001 C CNN
F 3 "" H 3250 3400 50  0001 C CNN
	1    3250 3400
	1    0    0    -1  
$EndComp
Wire Wire Line
	3250 3400 3250 3300
Wire Wire Line
	3050 3100 2800 3100
$Comp
L ME218_BaseLib:Res1 R3
U 1 1 6006AC7F
P 3250 4000
F 0 "R3" V 3045 4000 50  0000 C CNN
F 1 "Res1" V 3136 4000 50  0000 C CNN
F 2 "" V 3290 3990 50  0001 C CNN
F 3 "" H 3250 4000 50  0001 C CNN
	1    3250 4000
	0    1    1    0   
$EndComp
Wire Wire Line
	3650 3000 3650 4000
Wire Wire Line
	3650 4000 3400 4000
Wire Wire Line
	3100 4000 2800 4000
Wire Wire Line
	2800 4000 2800 3100
Wire Wire Line
	3050 2900 2000 2900
Text Notes 4250 3000 0    50   ~ 0
Vout
Text Notes 1850 2900 0    50   ~ 0
Vin
$Comp
L ME218_BaseLib:Res1 R2
U 1 1 600780F5
P 2400 4000
F 0 "R2" V 2195 4000 50  0000 C CNN
F 1 "Res1" V 2286 4000 50  0000 C CNN
F 2 "" V 2440 3990 50  0001 C CNN
F 3 "" H 2400 4000 50  0001 C CNN
	1    2400 4000
	0    1    1    0   
$EndComp
Wire Wire Line
	2550 4000 2800 4000
Connection ~ 2800 4000
Wire Wire Line
	2250 4000 2000 4000
Text Notes 1800 4000 0    50   ~ 0
Vref
$EndSCHEMATC
