EESchema Schematic File Version 4
EELAYER 30 0
EELAYER END
$Descr A4 11693 8268
encoding utf-8
Sheet 1 1
Title ""
Date ""
Rev ""
Comp ""
Comment1 ""
Comment2 ""
Comment3 ""
Comment4 ""
$EndDescr
$Comp
L ME218_BaseLib:2N7000 Q1
U 1 1 6005173D
P 3800 4700
F 0 "Q1" H 4006 4746 50  0000 L CNN
F 1 "2N7000" H 4006 4655 50  0000 L CNN
F 2 "Package_TO_SOT_THT:TO-92_Inline" H 4000 4625 50  0001 L CIN
F 3 "" H 3800 4700 50  0001 L CNN
	1    3800 4700
	1    0    0    -1  
$EndComp
$Comp
L power:GNDREF #PWR?
U 1 1 600524DE
P 3900 5000
F 0 "#PWR?" H 3900 4750 50  0001 C CNN
F 1 "GNDREF" H 3905 4827 50  0000 C CNN
F 2 "" H 3900 5000 50  0001 C CNN
F 3 "" H 3900 5000 50  0001 C CNN
	1    3900 5000
	1    0    0    -1  
$EndComp
Wire Wire Line
	3900 4900 3900 5000
Wire Wire Line
	3600 4700 3250 4700
Text Notes 2800 4700 0    50   ~ 0
FromPIC16
$Comp
L ME218_BaseLib:LED D1
U 1 1 60053587
P 3900 4250
F 0 "D1" V 3847 4329 50  0000 L CNN
F 1 "LTE5208A" V 3938 4329 50  0000 L CNN
F 2 "" H 3900 4250 50  0001 C CNN
F 3 "" H 3900 4250 50  0001 C CNN
	1    3900 4250
	0    1    1    0   
$EndComp
$Comp
L ME218_BaseLib:LED D2
U 1 1 60054035
P 3900 3850
F 0 "D2" V 3847 3928 50  0000 L CNN
F 1 "MCDL833URDU12" V 3938 3928 50  0000 L CNN
F 2 "" H 3900 3850 50  0001 C CNN
F 3 "" H 3900 3850 50  0001 C CNN
	1    3900 3850
	0    1    1    0   
$EndComp
$Comp
L ME218_BaseLib:Res1 R1
U 1 1 600549D2
P 3900 3450
F 0 "R1" H 3968 3496 50  0000 L CNN
F 1 "200" H 3968 3405 50  0000 L CNN
F 2 "" V 3940 3440 50  0001 C CNN
F 3 "" H 3900 3450 50  0001 C CNN
	1    3900 3450
	1    0    0    -1  
$EndComp
Wire Wire Line
	3900 4500 3900 4400
Wire Wire Line
	3900 4100 3900 4000
Wire Wire Line
	3900 3700 3900 3600
$Comp
L power:+5V #PWR?
U 1 1 60057A07
P 3900 3200
F 0 "#PWR?" H 3900 3050 50  0001 C CNN
F 1 "+5V" H 3915 3373 50  0000 C CNN
F 2 "" H 3900 3200 50  0001 C CNN
F 3 "" H 3900 3200 50  0001 C CNN
	1    3900 3200
	1    0    0    -1  
$EndComp
Wire Wire Line
	3900 3300 3900 3200
$EndSCHEMATC
