EESchema Schematic File Version 4
EELAYER 30 0
EELAYER END
$Descr A4 11693 8268
encoding utf-8
Sheet 1 1
Title ""
Date ""
Rev ""
Comp ""
Comment1 ""
Comment2 ""
Comment3 ""
Comment4 ""
$EndDescr
$Comp
L ME218_BaseLib:Photo_NPN Q1
U 1 1 60058B97
P 2350 2850
F 0 "Q1" H 2540 2896 50  0000 L CNN
F 1 "LTR3208E" H 2540 2805 50  0000 L CNN
F 2 "" H 2550 2950 50  0001 C CNN
F 3 "" H 2350 2850 50  0001 C CNN
	1    2350 2850
	1    0    0    -1  
$EndComp
$Comp
L power:+5V #PWR?
U 1 1 600592EC
P 2450 2550
F 0 "#PWR?" H 2450 2400 50  0001 C CNN
F 1 "+5V" H 2465 2723 50  0000 C CNN
F 2 "" H 2450 2550 50  0001 C CNN
F 3 "" H 2450 2550 50  0001 C CNN
	1    2450 2550
	1    0    0    -1  
$EndComp
$Comp
L ME218_BaseLib:Res1 R1
U 1 1 60059A7A
P 2450 3400
F 0 "R1" H 2518 3446 50  0000 L CNN
F 1 "Res1" H 2518 3355 50  0000 L CNN
F 2 "" V 2490 3390 50  0001 C CNN
F 3 "" H 2450 3400 50  0001 C CNN
	1    2450 3400
	1    0    0    -1  
$EndComp
$Comp
L power:GNDREF #PWR?
U 1 1 6005A546
P 2450 3650
F 0 "#PWR?" H 2450 3400 50  0001 C CNN
F 1 "GNDREF" H 2455 3477 50  0000 C CNN
F 2 "" H 2450 3650 50  0001 C CNN
F 3 "" H 2450 3650 50  0001 C CNN
	1    2450 3650
	1    0    0    -1  
$EndComp
Wire Wire Line
	2450 2550 2450 2650
Wire Wire Line
	2450 3050 2450 3150
Wire Wire Line
	2450 3550 2450 3650
Wire Wire Line
	2450 3150 3100 3150
Wire Wire Line
	2450 3150 2450 3250
Text Notes 3150 3200 0    50   ~ 0
Vout\n
$Comp
L ME218_BaseLib:Photo_NPN Q1
U 1 1 6005CC2D
P 6050 2800
F 0 "Q1" H 6240 2846 50  0000 L CNN
F 1 "LTR3208E" H 6240 2755 50  0000 L CNN
F 2 "" H 6250 2900 50  0001 C CNN
F 3 "" H 6050 2800 50  0001 C CNN
	1    6050 2800
	1    0    0    -1  
$EndComp
$Comp
L power:+5V #PWR?
U 1 1 6005CC33
P 6150 2500
F 0 "#PWR?" H 6150 2350 50  0001 C CNN
F 1 "+5V" H 6165 2673 50  0000 C CNN
F 2 "" H 6150 2500 50  0001 C CNN
F 3 "" H 6150 2500 50  0001 C CNN
	1    6150 2500
	1    0    0    -1  
$EndComp
Wire Wire Line
	6150 2500 6150 2600
Wire Wire Line
	6150 3000 6150 3100
Connection ~ 2450 3150
$Comp
L ME218_BaseLib:MCP6294 U1
U 1 1 60060149
P 7000 3750
F 0 "U1" H 7344 3796 50  0000 L CNN
F 1 "MCP6294" H 7344 3705 50  0000 L CNN
F 2 "" H 6950 3850 50  0000 C CNN
F 3 "" H 7050 3950 50  0000 C CNN
	1    7000 3750
	1    0    0    -1  
$EndComp
$Comp
L ME218_BaseLib:Res1 R1
U 1 1 6006108C
P 6900 3100
F 0 "R1" V 6695 3100 50  0000 C CNN
F 1 "Res1" V 6786 3100 50  0000 C CNN
F 2 "" V 6940 3090 50  0001 C CNN
F 3 "" H 6900 3100 50  0001 C CNN
	1    6900 3100
	0    1    1    0   
$EndComp
Wire Wire Line
	7050 3100 7300 3100
Wire Wire Line
	7300 3750 7900 3750
Connection ~ 7300 3750
Wire Wire Line
	6400 3650 6700 3650
Text Notes 7950 3750 0    50   ~ 0
Vout\n
$Comp
L power:GNDREF #PWR?
U 1 1 6006351D
P 6900 4150
F 0 "#PWR?" H 6900 3900 50  0001 C CNN
F 1 "GNDREF" H 6905 3977 50  0000 C CNN
F 2 "" H 6900 4150 50  0001 C CNN
F 3 "" H 6900 4150 50  0001 C CNN
	1    6900 4150
	1    0    0    -1  
$EndComp
$Comp
L power:+5V #PWR?
U 1 1 60063F48
P 6900 3450
F 0 "#PWR?" H 6900 3300 50  0001 C CNN
F 1 "+5V" H 6915 3623 50  0000 C CNN
F 2 "" H 6900 3450 50  0001 C CNN
F 3 "" H 6900 3450 50  0001 C CNN
	1    6900 3450
	1    0    0    -1  
$EndComp
Wire Wire Line
	6150 3100 6400 3100
Wire Wire Line
	7300 3100 7300 3750
Wire Wire Line
	6400 3100 6400 3650
Connection ~ 6400 3100
Wire Wire Line
	6400 3100 6750 3100
Wire Wire Line
	6900 4050 6900 4150
$Comp
L ME218_BaseLib:Res1 R2
U 1 1 6007C96C
P 5600 3600
F 0 "R2" H 5668 3646 50  0000 L CNN
F 1 "Res1" H 5668 3555 50  0000 L CNN
F 2 "" V 5640 3590 50  0001 C CNN
F 3 "" H 5600 3600 50  0001 C CNN
	1    5600 3600
	1    0    0    -1  
$EndComp
$Comp
L ME218_BaseLib:Res1 R3
U 1 1 6007D4FA
P 5600 4100
F 0 "R3" H 5668 4146 50  0000 L CNN
F 1 "Res1" H 5668 4055 50  0000 L CNN
F 2 "" V 5640 4090 50  0001 C CNN
F 3 "" H 5600 4100 50  0001 C CNN
	1    5600 4100
	1    0    0    -1  
$EndComp
$Comp
L ME218_BaseLib:Cap C1
U 1 1 6007DF66
P 5150 4100
F 0 "C1" H 5265 4146 50  0000 L CNN
F 1 "Cap" H 5265 4055 50  0000 L CNN
F 2 "" H 5188 3950 50  0001 C CNN
F 3 "" H 5150 4100 50  0001 C CNN
	1    5150 4100
	1    0    0    -1  
$EndComp
Wire Wire Line
	5600 3750 5600 3850
Wire Wire Line
	6700 3850 5600 3850
Connection ~ 5600 3850
Wire Wire Line
	5600 3850 5600 3950
Wire Wire Line
	5600 3850 5150 3850
Wire Wire Line
	5150 3850 5150 3950
$Comp
L power:+5V #PWR?
U 1 1 600824BF
P 5600 3350
F 0 "#PWR?" H 5600 3200 50  0001 C CNN
F 1 "+5V" H 5615 3523 50  0000 C CNN
F 2 "" H 5600 3350 50  0001 C CNN
F 3 "" H 5600 3350 50  0001 C CNN
	1    5600 3350
	1    0    0    -1  
$EndComp
$Comp
L power:GNDREF #PWR?
U 1 1 60082CC2
P 5600 4450
F 0 "#PWR?" H 5600 4200 50  0001 C CNN
F 1 "GNDREF" H 5605 4277 50  0000 C CNN
F 2 "" H 5600 4450 50  0001 C CNN
F 3 "" H 5600 4450 50  0001 C CNN
	1    5600 4450
	1    0    0    -1  
$EndComp
Wire Wire Line
	5600 4250 5600 4350
Wire Wire Line
	5150 4250 5150 4350
Wire Wire Line
	5150 4350 5600 4350
Connection ~ 5600 4350
Wire Wire Line
	5600 4350 5600 4450
Wire Wire Line
	5600 3450 5600 3350
Text Notes 6400 3950 0    50   ~ 0
Vref
$EndSCHEMATC
